<?xml version="1.0" encoding="utf-8"?>
<!-- Generator: Adobe Illustrator 17.1.0, SVG Export Plug-In . SVG Version: 6.00 Build 0)  -->
<!DOCTYPE svg PUBLIC "-//W3C//DTD SVG 1.0//EN" "http://www.w3.org/TR/2001/REC-SVG-20010904/DTD/svg10.dtd">
<svg version="1.0" xmlns="http://www.w3.org/2000/svg" xmlns:xlink="http://www.w3.org/1999/xlink" x="0px" y="0px"
	 viewBox="0 0 61 54" enable-background="new 0 0 61 54" width="61px" height="54px" xml:space="preserve">
<g id="Background_xA0_Image_1_">
</g>
<g id="Shape_2_1_">
	<g id="Shape_2">
		<path fill-rule="evenodd" fill="#0B24FB" d="M19.9,9.9c0,0-0.8-0.3-2.1-0.4c-1.3-0.1-2.7,0.7-2.7,0.7c0.6-0.1,1-0.1,2.1-0.2
			C18.2,9.8,19.9,9.9,19.9,9.9z M44.1,11.4c0.3-0.1,2.2-0.5,3.5-1.7C48.4,9,48,7.6,47.7,6.8C47.8,7.6,47.6,9,47,9.7
			C46.3,10.5,44.1,11.4,44.1,11.4z M30.4,19.4C30.4,19.4,30.4,19.4,30.4,19.4C30.3,20.1,30.4,19.4,30.4,19.4z M47.7,6.8
			c0-0.2-0.1-0.3-0.1-0.4C47.4,6.2,47.6,6.4,47.7,6.8z M25.5,50.1l-0.2-0.4l-0.2,0.4l-0.5,0.1l0.4,0.3L24.8,51l0.4-0.2l0.4,0.2
			l-0.1-0.5l0.4-0.3L25.5,50.1z M33.4,50.7l-0.2-0.4l-0.2,0.4l-0.5,0.1l0.4,0.3l-0.1,0.5l0.4-0.2l0.4,0.2l-0.1-0.5l0.4-0.3
			L33.4,50.7z M37,49.9l-0.2-0.4l-0.2,0.4l-0.5,0.1l0.4,0.3l-0.1,0.5l0.4-0.2l0.4,0.2l-0.1-0.5l0.4-0.3L37,49.9z M29.2,50.7L29,50.3
			l-0.2,0.4l-0.5,0.1l0.4,0.3l-0.1,0.5l0.4-0.2l0.4,0.2l-0.1-0.5l0.4-0.3L29.2,50.7z M35.7,39.3c0.2,0.2,0.8,0,1.2-0.7
			c0.2-0.4,0.4-1.2,0-2c-0.4-0.8-1-0.8-1.1-0.7c-0.4,0.3-0.1,0.6,0.1,1.1c0.2,0.4,0.1,1-0.1,1.3C35.6,38.5,35.5,39.1,35.7,39.3z
			 M46.5,26c-0.2,0-0.4,0.2-0.4,0.4c0,0.2,0.2,0.4,0.4,0.4c0.2,0,0.4-0.2,0.4-0.4C47,26.2,46.8,26,46.5,26z M58.4,36.2
			c-0.6-0.6-1.1-1.4-1.3-2.3c-0.2-0.9,0.5-1.6,0.8-2.1c0.3-0.5,0.1-1.1-0.1-1.3c-0.2-0.2-0.8-0.4-1.8,0.1c-1,0.5-1.3,1.8-1.5,2.5
			c-0.4,1.7,0.9,3.7,0.9,3.7s-2.1-1.6-2.4-1.9c-1.2-1.2-1.3-2.1-1-3.8c0.3-1.7,0.7-2.3-0.2-4.4c-0.6-1.5-2.1-2.3-2.6-2.5
			c0,0,0,0,0,0c0.3,0.1,0.2,0.1,0,0c0.7-0.5,1.5-1.2,1.6-1.9c0.4-1.6,0.3-1.3,0.3-1.3s2.3-0.3,2.5-2.7c0.2-2.4-1.4-3.5-1.4-3.5
			s1.5-0.7,1-2.2c-0.5-1.5-2.6-1.1-2.6-1.1s1.9-5.3-3.2-9c-4.1-2.9-8.7-1.1-9.6-0.5c-0.9,0.7-1.4,1.2-1.4,1.2s-0.1-2.6-2.6-2.7
			c-1.8-0.1-2.5,0.5-2.5,0.5s-1.1-0.6-2.1-0.4c-1,0.2-1.9,0.9-1.9,0.9s-1-1.9-2.9-2c-1.9-0.1-3.1,0.3-4,0.9c-2.7,1.7-3,4.3-2.6,5.8
			c0.4,1.5,0.2,1.1,0.2,1.1s-4.8-0.1-7.8,3.6c-3,3.7-1.6,6.5-0.8,7.9c0.8,1.3,2,1.8,2,1.8s0.2,1,0.5,1.9c-0.6-0.1-1.4-0.3-1.4-0.3
			s-0.7-0.9-1.8-0.6c-1.1,0.3-1.1,1.2-1.1,1.2s-1.5,0.8-2,2.6s-0.4,2.7,0.3,4.8c0.7,2.1,1.7,3.1,1.9,3.2c0.2,0.2,0.5,0.3,0.8,0.2
			C8.9,33.6,9,33.6,9,33.6s0.2,1.2-0.2,2S6.9,38.5,6,38.9c-0.9,0.4-2.3,0.6-3.1-0.1c-0.7-0.6-1.2-1-1.2-2.3c0-1.3,0.5-1.8,0.8-2
			c0.3-0.2,0.9-0.4,1-0.1c0.2,0.2,0.3,0.7,0.2,1.2C3.7,36,3.6,36.8,4.1,37c0.5,0.3,1.5,0.1,2.1-0.5c0.7-0.5,1.4-1.9,0.9-3
			c-0.5-1.1-1.7-2.2-3.3-2.1s-3.7,1.4-4.1,3c-0.4,1.6-0.4,3.7,0.4,4.9C0.8,40.7,2,42,3.8,42.2c0.7,0.1,1.5-0.1,1.9-0.1
			C6.1,42,6.4,42,6.4,42s0.1,0.6,0.4,1C7,43.4,7.2,43.8,7,44.1c-0.2,0.3-1.2,1.6-1.4,1.8s-0.4,0.7-0.2,1.4c0.2,0.7,0.8,2.6,1.2,3
			c0.3,0.4,1,0.9,1.8,0.9c0.8,0,1.8-0.1,2.3-0.1c0.4,0,1-0.4,1.1-1c0.1-0.6-0.2-1.2-0.7-1.6c-0.5-0.4-1.2-0.7-1.4-1
			c-0.2-0.4-0.3-0.6,0-0.8c0.3-0.2,1.6-1.1,2.1-1.3c0.5-0.3,1-0.7,1.1-1.2c0.1-0.5,0.2-1.4,0.2-1.4h0.7c0,0-0.1,1.3,0,1.8
			c0.1,0.5,0.4,1.1,1.6,1.2c0.8,0,1.8,0,2.4,0c0,0.2,0.1,0.4,0.1,0.5c0.2,0.3,0.9,1.1,0.9,1.1s-0.4,0.7-0.7,1.2
			C17.6,49.1,18,50,18.7,50s2.5,0,2.5,0s0,0.3,0.1,0.8c0.1,0.5,2.2,2.9,8.9,2.9c6.7,0,8.9-1.6,9.6-2.2c0.7-0.5,0.6-1.6,0.6-1.6
			s1.5,0,2.4,0c0.9,0,1.1-0.9,0.9-1.2c-0.1-0.2-0.8-1.3-0.8-1.3s0.2-0.3,0.6-0.8c0.3,0.4,1,0.7,1.5,0.7c0.5,0,1.3-0.1,1.6-0.5
			c0.4-0.4,0.7-0.5,2-0.7c1.3-0.2,1.5-0.4,1.8-0.8c0.3-0.4,0.2-1.2,0.2-1.2l0.5,0c0,0,0.2,0.3,0.4,0.6c0.2,0.3,1,0.6,1.3,0.7
			c0.3,0.1,0.7,0.7,0.7,0.7S52.2,49,52,49.6s-0.2,1,0.1,1.5c0.3,0.4,1.3,0.4,2,0.4c0.7-0.1,1.3-0.7,1.4-1.3c0.1-0.6,0.4-1.9,0.7-2.9
			c0.2-0.9,0.6-1.4,0.9-2.1c0.2-0.7-0.2-1.3-0.4-1.5c-0.2-0.3-0.6-1-0.6-1s0.4,0.2,0.6,0.3c0.2,0.1,0.9,0.2,1.3,0.3
			c0.3,0,2.5-0.3,2.5-2.5C60.6,38.4,59,36.9,58.4,36.2z M52.6,17.1c0.1,0.6-0.2,0.9-0.6,0.5c-0.5-0.3-2-1.1-3.7-1.2
			c-0.4,0,2.4,0.4,3.4,1.6c0.6,0.7,0.7,1.4,0.2,1.7c-0.5,0.3-1.4,0.2-2.4-1c-1-1.2-3.6-2.3-6.8-1.3c0,0,3.4-2.6,5.9-2.4
			C51,15.4,52.5,16.5,52.6,17.1z M46.6,20.7c0.6-0.3,1.6-0.7,2.2-0.2c0.6,0.5,0.1,1.3-0.6,1.3C46.9,22,45.7,21,45.7,21
			C46.9,20.8,45.9,21,46.6,20.7z M37.8,4.2c0.5-0.8,1.9-2.3,4.9-2c3,0.3,5.7,1.7,6.5,4.1c0.9,2.4,0.4,4.3-0.8,5.4
			c-1.8,1.5-3.8,1.7-6.1,2.5c-2.2,0.8-4.2,2-6.3,5c0,0,1.3-3.6,3.1-5.9c1.8-2.2,5-3.7,5.8-4.2c0.8-0.4,1.2-1.7,0.4-2.3
			c-0.8-0.6-1.7-0.8-2.3-0.2c-0.7,0.6-1.2,2.3-2.6,1.7c-1.4-0.6-1.3-2-0.9-2.9c0.4-1,1.8-1.7,2.4-1.8c0.7-0.1,1.7-0.2,1.7-0.2
			s-1.5-0.7-3.1-0.2s-1.4,1.8-2,2.1C38.1,5.6,37.3,5,37.8,4.2z M36.7,7.3c2,1.3,0.3,4.2,0.3,4.2c0.1-0.5-0.2-1.2-0.4-2
			c-0.2-0.7-1.2-1.7-1.1-1.2c0,0.5-0.8,0.8-1.6,0.7C33,9.1,33.3,8,33.5,7.7C33.7,7.4,34.7,6.1,36.7,7.3z M30,1.9
			c0.8,0,1.5,1.3,1.5,1.3s0.5-1.1,1.5-1.6c1-0.5,2.4,0.4,1.9,1.1c-0.5,0.6-0.8,0.1-2,0.7c-1.2,0.5-1.4,4.3-1.4,4.3s-0.3-2-0.6-2.8
			c-0.3-0.9-1.2-1.1-1.8-1c-0.6,0.1-1.1-0.4-1.1-1C28.1,2.2,29.2,1.9,30,1.9z M28.5,6.7c0.9-0.1,1.3,1.1,0.1,1.6
			c-1.2,0.5-1.5,2-1.5,2s-0.2-0.4-0.2-1.4C26.8,7.8,27.6,6.8,28.5,6.7z M11,19.1c-0.4-0.2-1.4-1-1.6-2.6c-0.2-1.6,0.7-5.4,4.7-7.3
			c4-1.9,7,0.1,7,0.1c-1.1-1-1.8-1.4-2.3-2.6c-0.4-1.2-0.3-3.3,0.8-4.6c1.1-1.2,2.9-1.7,4.9-1.4c2,0.3,2.1,1.8,2.1,2.8
			c0,0.9-1,2.2-1.6,1.8c-0.6-0.3-0.5-1,0.2-1.8c0.7-0.8-0.4-1.6-1.8-1.7c-1.4-0.1-2.2,0.8-2.8,1.5c-0.6,0.7-0.3,1.9-0.3,1.9
			s0.1-0.5,0.5-1.2c0.4-0.7,1.1-1.2,1.7-0.8c0.6,0.4,0.4,1.3,0,1.5c-0.4,0.2-0.8,1-0.7,2c0.1,1,1,2.2,2.2,3.1
			c1.2,0.9,3.5,3.5,3.5,3.5s0.3-0.8,1.2-1.4c0.9-0.6,0.6,0.7,0.2,1.2c-0.4,0.5-0.4,1.9,0.2,3c0.5,0.9,1.4,2.9,1.5,3.3
			c0-0.2,0.1-0.5,0.1-1c0.3-2.1,1.9-4.4,2.8-5.2c0.9-0.8,1.5-0.5,1,0.3c-0.5,0.8-1.7,3.3-1.9,5.3c-0.2,2,1.3,4.2,1.3,4.2
			s0.5-1.1,1.7-1.9c1.3-0.7,3.3-1.1,4.6-1.2c1.3-0.1,2-0.3,2.6-0.6c0.5-0.3,1,0.3,0.7,0.6c-0.3,0.4-0.8,0.7-2.2,0.8
			c-1.4,0.1-2.5,0.7-3.5,1.1c-1,0.4-1.7,2-1.9,2.6c-0.2,0.6-0.2,2.9-0.2,3.4c0,0.5-2.9,0-3.1-0.1s-0.9-0.6-1.1-0.9
			c-0.2-0.3-0.6-2-0.6-2s-0.1,1.9-0.4,2.2c-0.3,0.3-0.6,0-0.8-0.7c-0.2-0.6-0.6-5.5-0.6-5.5s-0.2,4.8-0.3,5.5
			c-0.1,0.7-0.2,0.9-0.6,0.8c-0.4-0.1-0.7-0.1-0.7-0.5c0-0.4,0.1-2.2-0.1-3C27,23,25.9,23,24.6,22.3c-1.3-0.6-2.7-1.6-3.4-2.3
			c-0.7-0.7,0.1-1,0.3-0.8c0.2,0.2,0.8,0.7,2.6,1.5c1.8,0.9,3.3,0.9,3.3,0.9s0.2-0.7,0.3-2.1c0.1-1.4-0.4-3-0.9-3.7
			c-0.5-0.7-1.5-0.9-2.4-0.9c-0.9,0-1.4-0.4-1.4-0.8c0-0.4,0.8-0.4,1-0.2c0.2,0.2,0.7,0.2,0.9-0.1c0.3-0.3-0.4-0.8-1.2-1.1
			c-0.8-0.4-2.1,0.4-2.3,1.1c-0.2,0.7-1.1,1.2-1.4,1c-0.3-0.3-0.4-0.9,0.6-1.9c1-0.9,2.9-0.9,2.7-1c-1.1-0.2-2.8-0.1-4.1,0.3
			c-1.2,0.5-1.8,1.3-1.8,1.8c0,0.5-0.4,1.2-0.8,1.3c-0.4,0-0.8-0.4-0.7-1.3c0.1-0.9,1.7-1.8,1.7-1.8s-1.9,0.7-2.5,1.2
			c-0.6,0.5-0.9,1.5-0.8,2.1c0.1,0.6,0.2,1.1-0.3,1.4c-0.5,0.3-1.3-0.1-1.5-0.5c-0.1-0.4-0.5-1.5,0.7-3.1c1.2-1.5,4.2-2.1,2.8-1.8
			c-1.4,0.3-2.7,1.2-3.7,2.1c-1,0.9-1.3,2.1-1,2.6c0.3,0.6,0.6,1.7,0.5,2.2C12,18.8,11.4,19.3,11,19.1z M43.6,33
			c0,0-1.5-1.5-1.9-2.6c-0.4-1-0.9-1.5-1.5-1.6c-0.6-0.1-1.1-0.1-1.3-0.4c-0.2-0.3-0.3-1.2-0.3-1.2s1.1,0.1,1.8,0.3
			c0.6,0.2,1.5,0.8,1.7,1.3c0.2,0.5,1,1.6,1.4,1.8c0.4,0.3,0.9,0.6,0.9,0.6s-0.4,0.6-0.6,1.1C43.6,32.9,43.6,33,43.6,33z M39.5,39.6
			c0,0.1,0,0.1,0,0.2c-1.7,6.8-8.3,8.4-8.5,8.5v0c0,0,0,0,0,0c0,0,0,0,0,0v0c-0.2,0-8.9-2.2-8.9-11.8c0-0.2,0-0.3,0-0.5
			c0.1-0.4,0.2-1.1,0.2-1.8c0-0.4-0.1-0.7-0.2-0.9c0-1.5,0-2.6,0-3.3c0.1,0,0.7-0.2,0.9-0.5c0,0.6-0.1,2.4-0.1,7.2
			c0,8.6,7.8,10.6,8,10.6v0c0,0,0,0,0,0s0,0,0,0v0c0.1,0,8-2,8-10.6c0-4.2,0-6.1-0.1-6.9c0.3,0.1,0.6,0.1,0.9,0.2c0,1.1,0,2.9,0,5.8
			c-0.2,0.5-0.4,1.4-0.5,2C39.4,38.1,39.5,39,39.5,39.6z M25.3,42.6l13.2-12.7c0,0.7,0.1,2.5,0.1,6.7c0,8.2-7.3,10.1-7.5,10.2v0
			c0,0,0,0,0,0s0,0,0,0v0C31,46.7,27.5,45.8,25.3,42.6z M25.1,42.2c-0.9-1.4-1.4-3.2-1.4-5.6c0-8.3,0.1-7.1,0.1-7.1h14.5L25.1,42.2z
			 M23.3,29.1c0.1-0.3,0.2-0.6,0.3-1h14.1c0,0.1,0.1,0.2,0.1,0.4c0.1,0.2,0.2,0.4,0.3,0.6H23.3z M22.2,23.7
			c-2.1-0.3-3.6-1.6-2.8-2.1c0.6-0.4,0.8-0.4,1.4,0.5C21.5,23,22.5,23.8,22.2,23.7z M22.5,16.7c0.1-0.8,1.6-0.9,2.2-0.3
			c0.7,0.5,1.1,1.6,1.2,1.9c0,0-0.9-0.8-1.9-0.7C23,17.5,22.5,17.5,22.5,16.7z M15.8,21.8c-0.4-0.6-1.4-2.4,0.2-3.3
			c1.7-0.9,2.3,0.4,2.4,0.8c0.1,0.5-0.6,1.5-1.5,1.1c-0.9-0.4-0.4-1.2-0.9-0.7C15.6,20.3,15.8,21.8,15.8,21.8z M8.5,32.8
			c0,0-3-3.4-2-7c0.4-1.3,1.1-1.9,1.9-2.3c0.1-0.4,0.2-0.9,0.5-1c0.4-0.1,0.8,0.1,1.1,0.7c0.6,0,1,0.1,1.1,0.1
			c0.4,0.2,3.8,0.7,4.4,0.7c0.1,0,0,0.6,0,0.8c0,0.2,0.1,0.7-0.1,0.7c-0.1,0-1.7-0.2-2,0.5c-0.2,0.7,0.8,0.9,1.2,0.8
			c0.4-0.1,0.5-0.2,0.5-0.2l0.2,0.7c0,0-0.9-0.1-1,0.3c-0.1,0.3,0.1,0.5,0.3,0.6c0.2,0.1,0.8,0.4,1.1,1.1c0.3,0.5,0.5,1.3,0.5,1.3
			l-0.2,0c0,0-2.6-0.4-4.7,0.4C9.7,31.7,8.5,32.8,8.5,32.8z M12.4,39.5c-0.3,1-0.4,3-0.4,3.6c0,0.6,0,1-0.8,1.4
			c-0.8,0.4-2.5,1.3-2.7,2c-0.2,0.7,0,1.2,0.5,1.6c0.4,0.5,1.3,0.8,1.5,1.1c0.2,0.2,0.5,0.9-0.1,0.9c-0.6,0.1-1.8,0-2.3,0
			c-0.5,0-0.8-0.3-1-0.8c-0.2-0.5-0.7-1.7-0.8-2c-0.1-0.3-0.2-0.8,0.2-1.3C7,45.8,8,44.6,8.1,43.9c0.1-0.7-0.8-1.6-0.8-2.8
			c0-0.2,0-0.4,0-0.5c-1.2,0.7-3,0.9-4,0.6c-1.1-0.4-2.6-1.5-2.9-4.1c-0.3-2.6,1.2-4.1,2.5-4.5c1.3-0.4,2.4,0,3,0.8
			c0.6,0.8,0.4,1.6-0.1,2.2c-0.5,0.6-1.2,0.8-1.2,0.8s0-0.4,0.1-0.7c0.1-0.3,0.1-0.6,0-1.1c0-0.4-0.5-0.9-1.1-1.2
			c-0.6-0.2-1.7,0.4-2.2,1c-0.5,0.6-0.7,1.9-0.5,3.1c0.2,1.2,1.3,2.3,2.6,2.6c1.2,0.3,3.1-0.3,3.8-1c0,0,0,0,0,0s1.9-2.2,2.5-3.5
			c0.5-1.3-0.1-2.7-0.1-2.7s1.3-1.3,3.3-1.4c2-0.1,3.4,0,3.9-0.5s1.6-2.3,2.4-2.9c1-0.8,2.3-1,2.8-0.7s0.5,0.4,0.5,0.4l-0.4,0.2
			c0,0,0.3,0.4,0.3,0.4c0,0-0.3,0.2-0.4,0.3c0,0,0.3,0.3,0.3,0.3c0,0.1-0.4,0.1-0.8,0.2c-0.4,0.2-1.1,0.6-1.8,1.6
			c-0.8,1.2-1.6,2-2.7,2.6c-1.1,0.5-1.3,0.6-1.2,0.7c0.1,0.2,0.7,0.1,1,0c0.2-0.1,0.4,0,0.4,0s-0.3,1-1.7,2.4
			C14.2,37.9,12.7,38.6,12.4,39.5z M21.3,35.9c-0.2,0.5-0.7,0.8-1.4,0.8c-0.7,0-3.8,0-3.8,0s0.5-0.5,0.8-1c0.3-0.5,0.6-1.3,0.6-1.3
			s1.2,0.2,1.7,0.2c0.5,0,0.6,0,1.1-0.7s0.9-0.4,1.1-0.2C21.5,33.8,21.4,35.4,21.3,35.9z M15.8,44.8c-1.2,0-1.3-0.3-1.3-0.6
			c0-0.3,0-1,0.1-1.7c0.1-0.7-0.8-0.8-1.2-0.8c-0.5,0-0.8,0-0.8,0s0-0.9,0.1-1.7s1.2-1.6,1.3-1.6c1-0.2,2.2,0,2.8,0.7
			c0.6,0.7,0,2.2-0.3,2.8c-0.3,0.6-0.1,1.2,0.4,1.3c0.5,0.1,1,0,1.7-0.2c0.7-0.2,1.1,0.1,1.3,0.4c0.2,0.3-0.1,1.4-0.5,1.4H15.8z
			 M41.9,47.3l1.1,1.7c0,0-1.9,0-2.4,0c-0.5,0-0.9,0.4-1,0.5c0,0.4,0,0.8,0,0.9c0,0.8-2.7,2.2-8,2.3c-0.1,0-0.2,0-0.3,0
			c-0.1,0-0.2,0-0.3,0c0,0,0,0-0.1,0l0,0h0v0c0,0,0,0-0.1,0c-0.1,0-0.2,0-0.3,0c-0.1,0-0.2,0-0.3,0c-5.3-0.2-8-1.6-8-2.3
			c0-0.2,0-0.8,0-1.5l0,0.6c0,0-0.5-0.5-1-0.5c-0.5,0-2.4,0-2.4,0l1.1-1.7l-1.2-1.5c0,0,2,0,2.7,0s0.9,0.3,0.9,0.3l0,0.8
			c0.3,0.9,2.5,2.7,8.7,2.7c6,0,8.2-1.8,8.6-2.7l0-0.9c0,0,0.3-0.3,0.9-0.3c0.7,0,2.7,0,2.7,0L41.9,47.3z M51.4,43.2
			c0,0-0.5,0-1.1,0s-0.6,0.9-0.6,1.5c0,0.6-0.8,0.6-1.8,0.7c-1,0.1-1.7,0.6-1.9,0.8c-0.2,0.3-0.8,0.4-1.3,0.1
			c-0.5-0.3-0.5-0.3,0.1-0.9c0.7-0.6,2.2-0.9,3-1c0.8-0.1,0.4-1.3,0.1-1.9s-0.4-1.5,0.1-1.8c0.6-0.4,1.6-0.9,1.6-0.9
			c0.7,0.5,1.8,0.5,1.8,0.5V43.2z M59.6,40.5c-0.1,1.1-0.8,1.9-1.8,1.8c-0.8-0.1-1.4-0.5-1.8-0.9c-0.2,0-0.5,0.1-0.7,0.4
			c-0.5,0.8,0.2,2,0.7,2.5c0.5,0.6-0.1,1.2-0.3,1.7c-0.3,0.6-0.7,2.4-0.9,3.4c-0.2,1-0.6,1.1-0.8,1.1h-0.8c-0.4,0-0.5-0.2-0.3-0.7
			c0.2-0.5,1.7-3.4,1.7-3.9c-0.1-0.5-0.7-1.2-1.3-1.5S52,44.1,52,42.9s0-3.2,0-3.2l-0.6-0.1c0,0,0,0,0,0l0,0c0,0-0.1,0-0.8-0.2
			c-1.1-0.2-2.9-1-4.7-2.5c0,0,0,0-0.1,0c-1-0.5-2.6-1.3-3.3-1c-0.7,0.3-1,0.8-0.9,1.6c0,0.8,0.3,1.4-0.1,1.9c-0.4,0.6-1,0.7-1,0.7
			s-0.1-1.7-0.2-2.2c0-0.4,0.3-1.6,0.6-2.4c0.4-0.8,0.5-1.3,0.9-1.3c0.3,0,1.5,0.1,2.2,0c-0.1-0.5,0-1.1,0.1-1.7
			c0.3-1.7,2.6-2.3,3.1-2.9c0.4-0.6,0.1-1.4,0.1-1.4s-0.9,0.6-1.3,1c-0.4,0.4-0.9,0.5-1.2,0.4c-0.3-0.1-0.5-0.2-0.4-1
			c0-0.8,0.3-2.8,0.3-2.8l-4.8-4c0,0,3.3,1.5,5.5,2.4l0.2-0.8l1,1.3c0.3,0.1,0.5,0.1,0.6,0.1c1,0,2.4,0.3,3.4,2.1
			c1.3,2.4,0.1,3.2,0.1,5.7c0,2.4,1.9,3.6,3.7,4.8c0.6,0.4,1,1,1.2,1.6c0.5,1,0.9,2.2,2.1,2.2c1.2,0,1.2-1.8,0.2-2.8
			c-0.8-0.9-3-2.6-2.8-4.7c0.2-2.1,1.3-2.4,1.7-2.5c0.4-0.1-0.9,1-0.9,2.2c0,1.2,0.6,2.4,1.6,3.3C58.9,38,59.7,39.4,59.6,40.5z
			 M56.4,38.2c0,0,1,1,1.2,1.3c0.2,0.3,0.3,0.7,0.2,0.8s0,0.2-0.3,0c-0.2-0.2-0.6-0.7-0.6-1C56.8,39,56.4,38.2,56.4,38.2z
			 M31.8,43.2c0.2-0.4,0.4-1.2,0-2c-0.4-0.8-1-0.8-1.1-0.7c-0.4,0.3-0.1,0.6,0.1,1.1c0.2,0.4,0.1,1-0.1,1.3
			c-0.2,0.3-0.3,0.9-0.1,1.1C30.8,44.1,31.4,44,31.8,43.2z M12.2,25.3c0.2,0,0.4-0.2,0.4-0.4s-0.2-0.4-0.4-0.4
			c-0.2,0-0.4,0.2-0.4,0.4S12,25.3,12.2,25.3z M33.4,41.7c0.2,0.2,0.8,0,1.2-0.7c0.2-0.4,0.4-1.2,0-2c-0.4-0.8-1-0.8-1.1-0.7
			c-0.4,0.3-0.1,0.6,0.1,1.1c0.2,0.4,0.1,1-0.1,1.3C33.3,40.9,33.2,41.5,33.4,41.7z M29.6,32.1l0.7,1.8h0.3l0.7-1.8v1.8h0.8v-2.8
			h-1.1l-0.6,1.5l-0.6-1.5h-1.1v2.8h0.8V32.1z M27.8,35.9c0-0.5-0.3-0.9-1-0.9H26v-0.4h1.5V34h-2.3v2.8h1.5
			C27.4,36.8,27.8,36.4,27.8,35.9z M26,36.2v-0.6h0.6c0.2,0,0.3,0.1,0.3,0.3c0,0.2-0.1,0.3-0.3,0.3H26z"/>
	</g>
</g>
</svg>
